module gitlab.com/trendgolibrary/trend-mongo-kit

go 1.15

require (
	github.com/fatih/structs v1.1.0
	github.com/gertd/go-pluralize v0.1.7
	github.com/ku/go-change-case v0.0.1
	go.mongodb.org/mongo-driver v1.7.1
)
